{
  "passwords": [
    {
      "ownerId": 2,
      "name": "Facebook",
      "login": "natalia.kistrina@qrok.mobi",
      "pass": "121212",
      "id": 1
    },
    {
      "ownerId": 2,
      "name": "Google.com",
      "login": "natalia.kistrina@qrok.mobi",
      "pass": "Qwerty!234",
      "id": 2
    }
  ],
  "users": [
    {
      "email": "natalia.kistrina@qrok.mobi",
      "password": "Qwe!234",
      "name": "Natalli",
      "id": 1
    },
    {
      "email": "kistrina.natali@gmail.com",
      "password": "Qwe!2345",
      "name": "Natali",
      "id": 2
    }
  ]
}